{
"autoplayBgm":false,"autoplayBgs":false,"battleback1Name":"","battleback2Name":"","bgm":{"name":"","pan":0,"pitch":100,"volume":90},"bgs":{"name":"","pan":0,"pitch":100,"volume":90},"disableDashing":false,"displayName":"","encounterList":[],"encounterStep":30,"height":13,"note":"","parallaxLoopX":false,"parallaxLoopY":false,"parallaxName":"","parallaxShow":true,"parallaxSx":0,"parallaxSy":0,"scrollType":0,"specifyBattleback":false,"tilesetId":2,"width":17,
"data":[2816,2816,2816,2816,2816,2816,2816,2816,2816,2816,2816,2816,2816,2816,2816,2816,2816,2816,2816,2816,2816,2816,2816,2816,2816,2816,2816,2816,2816,2816,2816,2816,2816,2816,2816,2816,2816,2816,2816,2816,2816,2816,2816,2816,2816,2816,2816,2816,2816,2816,2816,2816,2816,2816,2816,2816,2816,2816,2816,2816,2816,2816,2816,2816,2816,2816,2816,2816,2816,2816,2816,2816,2816,2816,2816,2816,2816,2816,2816,2816,2816,2816,2816,2816,2816,2816,2816,2816,2816,2816,2816,2816,2816,2816,2816,2816,2816,2816,2816,2816,2816,2816,2816,2816,2816,2816,2816,2816,2816,2816,2816,2816,2816,2816,2816,2816,2816,2816,2816,2816,2816,2816,2816,2816,2816,2816,2816,2816,2816,2820,2844,2844,2824,2816,2816,2816,2816,2816,2816,2816,2816,2816,2816,2816,2816,2816,2840,1608,1609,2832,2816,2816,2816,2816,2816,2816,2816,2816,2816,2816,2816,2816,2816,2840,1616,1617,2832,2816,2816,2816,2816,2816,2816,2816,2816,2816,2816,2816,2816,2816,2818,2836,2836,2817,2816,2816,2816,2816,2816,2816,2816,2816,2816,2816,2816,2816,2816,2816,2816,2816,2816,2816,2816,2816,2816,2816,2816,2816,2816,2816,2816,2816,2816,2816,2816,2816,2816,2816,2816,2816,2816,0,0,0,0,0,0,0,0,0,0,0,0,0,0,0,0,0,0,0,0,0,0,0,0,0,0,0,0,0,0,0,0,0,0,0,0,0,0,0,0,0,0,0,0,0,0,0,0,0,0,0,0,0,0,0,0,0,0,0,0,0,0,0,0,0,0,0,0,0,0,0,0,0,0,0,0,0,0,0,0,0,0,0,0,0,0,0,0,0,0,0,0,0,0,0,0,0,0,0,0,0,0,0,0,0,0,0,0,0,0,0,0,0,0,0,0,0,0,0,0,0,0,0,0,0,0,0,0,0,0,0,0,0,0,0,0,0,0,0,0,0,0,0,0,0,0,0,0,0,0,0,0,0,0,0,0,0,0,0,0,0,0,0,0,0,0,0,0,0,0,0,0,0,0,0,0,0,0,0,0,0,0,0,0,0,0,0,0,0,0,0,0,0,0,0,0,0,0,0,0,0,0,0,0,0,0,0,0,0,0,0,0,0,0,0,0,0,0,0,0,0,0,0,0,0,0,0,0,0,0,0,0,0,0,0,0,0,0,0,0,0,0,0,0,0,0,0,0,0,0,0,0,0,0,0,0,0,0,0,0,0,0,0,0,0,0,0,0,0,0,0,0,0,0,0,0,0,0,0,0,0,0,0,0,0,0,0,0,0,0,0,0,0,0,0,0,0,0,0,0,0,0,0,0,0,0,0,0,0,0,0,0,0,0,0,0,0,0,0,0,0,0,0,0,0,0,0,0,0,0,0,0,0,0,0,0,0,0,0,0,0,0,0,0,0,0,0,0,0,0,0,0,0,0,0,0,0,0,0,0,0,0,0,0,0,0,0,0,0,0,0,0,0,0,0,0,0,0,0,0,0,0,0,0,0,0,0,0,0,0,0,0,0,0,0,0,0,0,0,0,0,0,0,0,0,0,0,0,0,0,0,0,0,0,0,0,0,0,0,0,0,0,0,0,0,0,0,0,0,0,0,0,0,0,0,0,0,0,0,0,0,0,0,0,0,0,0,0,0,0,0,0,0,0,0,0,0,0,0,0,0,0,0,0,0,0,0,0,0,0,0,0,0,0,0,0,0,0,0,0,0,0,0,0,0,0,0,0,0,0,0,0,0,0,0,0,0,0,0,0,0,0,0,0,0,0,0,0,0,0,0,0,0,0,0,0,0,0,0,0,0,0,0,0,0,0,0,0,0,0,0,0,0,0,0,0,0,0,0,0,0,0,0,0,0,0,0,0,0,0,0,0,0,0,0,0,0,0,0,0,0,0,0,0,0,0,0,0,0,0,0,0,0,0,0,0,0,0,0,0,0,0,0,0,0,0,0,0,0,0,0,0,0,0,0,0,0,0,0,0,0,0,0,0,0,0,0,0,0,0,0,0,0,0,0,0,0,0,0,0,0,0,0,0,0,0,0,0,0,0,0,0,0,0,0,0,0,0,0,0,0,0,0,0,0,0,0,0,0,0,0,0,0,0,0,0,0,0,0,0,0,0,0,0,0,0,0,0,0,0,0,0,0,0,0,0,0,0,0,0,0,0,0,0,0,0,0,0,0,0,0,0,0,0,0,0,0,0,0,0,0,0,0,0,0,0,0,0,0,0,0,0,0,0,0,0,0,0,0,0,0,0,0,0,0,0,0,0,0,0,0,0,0,0,0,0,0,0,0,0,0,0,0,0,0,0,0,0,0,0,0,0,0,0,0,0,0,0,0,0,0,0,0,0,0,0,0,0,0,0,0,0,0,0,0,0,0,0,0,0,0,0,0,0,0,0,0,0,0,0,0,0,0,0,0,0,0,0,0,0,0,0,0,0,0,0,0,0,0,0,0,0,0,0,0,0,0,0,0,0,0,0,0,0,0,0,0,0,0,0,0,0,0,0,0,0,0,0,0,0,0,0,0,0,0,0,0,0,0,0,0,0,0,0,0,0,0,0,0,0,0,0,0,0,0,0,0,0,0,0,0,0,0,0,0,0,0,0,0,0,0,0,0,0,0,0,0,0,0,0,0,0,0,0,0,0,0,0,0,0,0,0,0,0,0,0,0,0,0,0,0,0,0,0,0,0,0,0,0,0,0,0,0,0,0,0,0,0,0,0,0,0,0,0,0,0,0,0,0,0,0,0,0,0,0,0,0,0,0,0,0,0,0,0,0,0,0,0,0,0,0,0,0,0,0,0,0,0,0,0,0,0,0,0,0,0,0,0,0,0,0,0,0,0,0,0,0,0,0,0,0,0,0,0,0,0,0,0,0,0,0,0,0,0,0,0,0,0,0,0,0,0,0,0,0,0,0,0,0,0,0,0,0,0,0,0,0,0,0,0,0,0,0,0,0,0,0,0,0,0,0,0,0,0,0,0,0,0,0,0,0,0,0,0,0,0,0,0,0,0,0,0,0,0,0,0,0,0,0,0,0,0,0,0,0,0,0,0,0,0,0,0,0,0,0,0,0,0,0,0,0,0,0,0,0,0,0,0,0,0,0,0,0,0,0],
"events":[
null,
{"id":1,"name":"EV001","note":"","pages":[{"conditions":{"actorId":1,"actorValid":false,"itemId":1,"itemValid":false,"selfSwitchCh":"A","selfSwitchValid":false,"switch1Id":1,"switch1Valid":false,"switch2Id":1,"switch2Valid":false,"variableId":1,"variableValid":false,"variableValue":0},"directionFix":false,"image":{"tileId":0,"characterName":"Actor1","direction":2,"pattern":1,"characterIndex":7},"list":[{"code":102,"indent":0,"parameters":[["Battle(Jogress Battle)","Battle(Agumon)","Unlock Alphamon","2","3","4"],1,0,2,0]},{"code":402,"indent":0,"parameters":[0,"Battle(Jogress Battle)"]},{"code":283,"indent":1,"parameters":["Cyberspace","Cyberspace"]},{"code":301,"indent":1,"parameters":[0,9,true,false]},{"code":601,"indent":1,"parameters":[]},{"code":0,"indent":2,"parameters":[]},{"code":602,"indent":1,"parameters":[]},{"code":0,"indent":2,"parameters":[]},{"code":604,"indent":1,"parameters":[]},{"code":0,"indent":1,"parameters":[]},{"code":402,"indent":0,"parameters":[1,"Battle(Agumon)"]},{"code":283,"indent":1,"parameters":["Cyberspace","Cyberspace"]},{"code":301,"indent":1,"parameters":[0,1,true,false]},{"code":601,"indent":1,"parameters":[]},{"code":0,"indent":2,"parameters":[]},{"code":602,"indent":1,"parameters":[]},{"code":0,"indent":2,"parameters":[]},{"code":604,"indent":1,"parameters":[]},{"code":0,"indent":1,"parameters":[]},{"code":402,"indent":0,"parameters":[2,"Unlock Alphamon"]},{"code":357,"indent":1,"parameters":["VisuMZ_2_ClassChangeSystem","ClassUnlockForActor","Unlock Class: Add For Actor(s)",{"Actors:arraynum":"[\"2\"]","Classes:arraynum":"[\"13\"]"}]},{"code":657,"indent":1,"parameters":["Actor ID(s) = [\"2\"]"]},{"code":657,"indent":1,"parameters":["Class ID(s) = [\"13\"]"]},{"code":0,"indent":1,"parameters":[]},{"code":402,"indent":0,"parameters":[3,"2"]},{"code":108,"indent":1,"parameters":["<Disable>"]},{"code":0,"indent":1,"parameters":[]},{"code":402,"indent":0,"parameters":[4,"3"]},{"code":0,"indent":1,"parameters":[]},{"code":402,"indent":0,"parameters":[5,"4"]},{"code":0,"indent":1,"parameters":[]},{"code":404,"indent":0,"parameters":[]},{"code":357,"indent":0,"parameters":["VisuMZ_1_MessageCore","ChoiceWindowProperties","Choices: Properties",{"LineHeight:num":"36","MaxRows:num":"8","MaxCols:num":"1","TextAlign:str":"default"}]},{"code":657,"indent":0,"parameters":["Line Height = 36"]},{"code":657,"indent":0,"parameters":["Max Rows = 8"]},{"code":657,"indent":0,"parameters":["Max Columns = 1"]},{"code":657,"indent":0,"parameters":["Text Alignment = default"]},{"code":0,"indent":0,"parameters":[]}],"moveFrequency":3,"moveRoute":{"list":[{"code":0,"parameters":[]}],"repeat":true,"skippable":false,"wait":false},"moveSpeed":3,"moveType":0,"priorityType":1,"stepAnime":false,"through":false,"trigger":0,"walkAnime":true}],"x":8,"y":5},
{"id":2,"name":"EV002","note":"","pages":[{"conditions":{"actorId":1,"actorValid":false,"itemId":1,"itemValid":false,"selfSwitchCh":"A","selfSwitchValid":false,"switch1Id":1,"switch1Valid":false,"switch2Id":1,"switch2Valid":false,"variableId":1,"variableValid":false,"variableValue":0},"directionFix":false,"image":{"tileId":0,"characterName":"Monster","direction":2,"pattern":1,"characterIndex":2},"list":[{"code":357,"indent":0,"parameters":["VisuMZ_2_QuestSystem","QuestDescription","Quest: Description Change",{"Keys:arraystr":"[\"start\"]","TargetID:eval":"2"}]},{"code":657,"indent":0,"parameters":["Quest Keys = [\"start\"]"]},{"code":657,"indent":0,"parameters":["Description ID = 2"]},{"code":0,"indent":0,"parameters":[]}],"moveFrequency":3,"moveRoute":{"list":[{"code":0,"parameters":[]}],"repeat":true,"skippable":false,"wait":false},"moveSpeed":3,"moveType":0,"priorityType":1,"stepAnime":false,"through":false,"trigger":0,"walkAnime":true}],"x":15,"y":4},
{"id":3,"name":"EV003","note":"","pages":[{"conditions":{"actorId":1,"actorValid":false,"itemId":1,"itemValid":false,"selfSwitchCh":"A","selfSwitchValid":false,"switch1Id":1,"switch1Valid":false,"switch2Id":1,"switch2Valid":false,"variableId":1,"variableValid":false,"variableValue":0},"directionFix":true,"image":{"characterIndex":0,"characterName":"!Chest","direction":2,"pattern":1,"tileId":0},"list":[{"code":250,"indent":0,"parameters":[{"name":"Chest1","volume":90,"pitch":100,"pan":0}]},{"code":205,"indent":0,"parameters":[0,{"repeat":false,"skippable":false,"wait":true,"list":[{"code":36},{"code":17},{"code":15,"parameters":[3]},{"code":18},{"code":15,"parameters":[3]},{"code":0}]}]},{"code":505,"indent":0,"parameters":[{"code":36}]},{"code":505,"indent":0,"parameters":[{"code":17}]},{"code":505,"indent":0,"parameters":[{"code":15,"parameters":[3]}]},{"code":505,"indent":0,"parameters":[{"code":18}]},{"code":505,"indent":0,"parameters":[{"code":15,"parameters":[3]}]},{"code":123,"indent":0,"parameters":["A",0]},{"code":126,"indent":0,"parameters":[33,0,0,1]},{"code":126,"indent":0,"parameters":[32,0,0,1]},{"code":101,"indent":0,"parameters":["",0,0,2,""]},{"code":401,"indent":0,"parameters":["Crest(s) of Courage and friendship was found!"]},{"code":0,"indent":0,"parameters":[]}],"moveFrequency":3,"moveRoute":{"list":[{"code":0,"parameters":[]}],"repeat":true,"skippable":false,"wait":false},"moveSpeed":3,"moveType":0,"priorityType":1,"stepAnime":false,"through":false,"trigger":0,"walkAnime":false},{"conditions":{"actorId":1,"actorValid":false,"itemId":1,"itemValid":false,"selfSwitchCh":"A","selfSwitchValid":true,"switch1Id":1,"switch1Valid":false,"switch2Id":1,"switch2Valid":false,"variableId":1,"variableValid":false,"variableValue":0},"directionFix":true,"image":{"characterIndex":0,"characterName":"!Chest","direction":8,"pattern":1,"tileId":0},"list":[{"code":0,"indent":0,"parameters":[]}],"moveFrequency":3,"moveRoute":{"list":[{"code":0,"parameters":[]}],"repeat":true,"skippable":false,"wait":false},"moveSpeed":3,"moveType":0,"priorityType":1,"stepAnime":false,"through":false,"trigger":0,"walkAnime":false}],"x":10,"y":5},
{"id":4,"name":"EV004","note":"","pages":[{"conditions":{"actorId":1,"actorValid":false,"itemId":1,"itemValid":false,"selfSwitchCh":"A","selfSwitchValid":false,"switch1Id":1,"switch1Valid":false,"switch2Id":1,"switch2Valid":false,"variableId":1,"variableValid":false,"variableValue":0},"directionFix":false,"image":{"tileId":0,"characterName":"Monster","direction":2,"pattern":1,"characterIndex":5},"list":[{"code":101,"indent":0,"parameters":["Monster",5,0,2,"Trainer"]},{"code":401,"indent":0,"parameters":["Unlock Omegamon?"]},{"code":102,"indent":0,"parameters":[["Yes","No"],1,0,2,0]},{"code":402,"indent":0,"parameters":[0,"Yes"]},{"code":318,"indent":1,"parameters":[0,1,0,256]},{"code":0,"indent":1,"parameters":[]},{"code":402,"indent":0,"parameters":[1,"No"]},{"code":0,"indent":1,"parameters":[]},{"code":404,"indent":0,"parameters":[]},{"code":0,"indent":0,"parameters":[]}],"moveFrequency":3,"moveRoute":{"list":[{"code":0,"parameters":[]}],"repeat":true,"skippable":false,"wait":false},"moveSpeed":3,"moveType":0,"priorityType":1,"stepAnime":false,"through":false,"trigger":0,"walkAnime":true}],"x":12,"y":5},
{"id":5,"name":"EV005","note":"","pages":[{"conditions":{"actorId":1,"actorValid":false,"itemId":1,"itemValid":false,"selfSwitchCh":"A","selfSwitchValid":false,"switch1Id":1,"switch1Valid":false,"switch2Id":1,"switch2Valid":false,"variableId":1,"variableValid":false,"variableValue":0},"directionFix":false,"image":{"tileId":0,"characterName":"SF_Actor1","direction":2,"pattern":1,"characterIndex":1},"list":[{"code":315,"indent":0,"parameters":[0,0,0,0,9999999,false]},{"code":0,"indent":0,"parameters":[]}],"moveFrequency":3,"moveRoute":{"list":[{"code":0,"parameters":[]}],"repeat":true,"skippable":false,"wait":false},"moveSpeed":3,"moveType":0,"priorityType":1,"stepAnime":false,"through":false,"trigger":0,"walkAnime":true}],"x":9,"y":5},
{"id":6,"name":"EV006","note":"","pages":[{"conditions":{"actorId":1,"actorValid":false,"itemId":1,"itemValid":false,"selfSwitchCh":"A","selfSwitchValid":false,"switch1Id":1,"switch1Valid":false,"switch2Id":1,"switch2Valid":false,"variableId":1,"variableValid":false,"variableValue":0},"directionFix":false,"image":{"tileId":0,"characterName":"!SF_Door2","direction":8,"pattern":1,"characterIndex":7},"list":[{"code":101,"indent":0,"parameters":["",0,0,2,""]},{"code":401,"indent":0,"parameters":["Digi-Egg: Agumon(Classic) added."]},{"code":126,"indent":0,"parameters":[41,0,0,1]},{"code":0,"indent":0,"parameters":[]}],"moveFrequency":3,"moveRoute":{"list":[{"code":0,"parameters":[]}],"repeat":true,"skippable":false,"wait":false},"moveSpeed":3,"moveType":0,"priorityType":1,"stepAnime":false,"through":false,"trigger":0,"walkAnime":true}],"x":3,"y":5},
{"id":7,"name":"EV007","note":"","pages":[{"conditions":{"actorId":1,"actorValid":false,"itemId":1,"itemValid":false,"selfSwitchCh":"A","selfSwitchValid":false,"switch1Id":1,"switch1Valid":false,"switch2Id":1,"switch2Valid":false,"variableId":1,"variableValid":false,"variableValue":0},"directionFix":true,"image":{"characterIndex":0,"characterName":"!Chest","direction":2,"pattern":1,"tileId":0},"list":[{"code":250,"indent":0,"parameters":[{"name":"Chest1","volume":90,"pitch":100,"pan":0}]},{"code":205,"indent":0,"parameters":[0,{"repeat":false,"skippable":false,"wait":true,"list":[{"code":36},{"code":17},{"code":15,"parameters":[3]},{"code":18},{"code":15,"parameters":[3]},{"code":0}]}]},{"code":505,"indent":0,"parameters":[{"code":36}]},{"code":505,"indent":0,"parameters":[{"code":17}]},{"code":505,"indent":0,"parameters":[{"code":15,"parameters":[3]}]},{"code":505,"indent":0,"parameters":[{"code":18}]},{"code":505,"indent":0,"parameters":[{"code":15,"parameters":[3]}]},{"code":123,"indent":0,"parameters":["A",0]},{"code":126,"indent":0,"parameters":[51,0,0,1]},{"code":126,"indent":0,"parameters":[52,0,0,1]},{"code":101,"indent":0,"parameters":["",0,0,2]},{"code":401,"indent":0,"parameters":["Digimental of Courage was found!"]},{"code":0,"indent":0,"parameters":[]}],"moveFrequency":3,"moveRoute":{"list":[{"code":0,"parameters":[]}],"repeat":true,"skippable":false,"wait":false},"moveSpeed":3,"moveType":0,"priorityType":1,"stepAnime":false,"through":false,"trigger":0,"walkAnime":false},{"conditions":{"actorId":1,"actorValid":false,"itemId":1,"itemValid":false,"selfSwitchCh":"A","selfSwitchValid":true,"switch1Id":1,"switch1Valid":false,"switch2Id":1,"switch2Valid":false,"variableId":1,"variableValid":false,"variableValue":0},"directionFix":true,"image":{"characterIndex":0,"characterName":"!Chest","direction":8,"pattern":1,"tileId":0},"list":[{"code":0,"indent":0,"parameters":[]}],"moveFrequency":3,"moveRoute":{"list":[{"code":0,"parameters":[]}],"repeat":true,"skippable":false,"wait":false},"moveSpeed":3,"moveType":0,"priorityType":1,"stepAnime":false,"through":false,"trigger":0,"walkAnime":false}],"x":11,"y":5},
{"id":8,"name":"EV008","note":"","pages":[{"conditions":{"actorId":1,"actorValid":false,"itemId":1,"itemValid":false,"selfSwitchCh":"A","selfSwitchValid":false,"switch1Id":1,"switch1Valid":false,"switch2Id":1,"switch2Valid":false,"variableId":1,"variableValid":false,"variableValue":0},"directionFix":false,"image":{"tileId":0,"characterName":"People3","direction":2,"pattern":1,"characterIndex":1},"list":[{"code":101,"indent":0,"parameters":["",0,0,2,""]},{"code":401,"indent":0,"parameters":["Increase Evo Slots"]},{"code":102,"indent":0,"parameters":[["Yes","No"],1,0,2,0]},{"code":402,"indent":0,"parameters":[0,"Yes"]},{"code":357,"indent":1,"parameters":["VisuMZ_2_ClassChangeSystem","MulticlassRaiseLimit","Multiclass: Raise Limit for Actor(s)",{"Actors:arraynum":"[\"1\"]","Limit:num":"1"}]},{"code":657,"indent":1,"parameters":["Actor ID(s) = [\"1\"]"]},{"code":657,"indent":1,"parameters":["Raise Limit By = 1"]},{"code":0,"indent":1,"parameters":[]},{"code":402,"indent":0,"parameters":[1,"No"]},{"code":0,"indent":1,"parameters":[]},{"code":404,"indent":0,"parameters":[]},{"code":0,"indent":0,"parameters":[]}],"moveFrequency":3,"moveRoute":{"list":[{"code":0,"parameters":[]}],"repeat":true,"skippable":false,"wait":false},"moveSpeed":3,"moveType":0,"priorityType":1,"stepAnime":false,"through":false,"trigger":0,"walkAnime":true}],"x":7,"y":5},
{"id":9,"name":"EV009","note":"","pages":[{"conditions":{"actorId":1,"actorValid":false,"itemId":1,"itemValid":false,"selfSwitchCh":"A","selfSwitchValid":false,"switch1Id":1,"switch1Valid":false,"switch2Id":1,"switch2Valid":false,"variableId":1,"variableValid":false,"variableValue":0},"directionFix":false,"image":{"tileId":0,"characterName":"Monster","direction":2,"pattern":1,"characterIndex":1},"list":[{"code":117,"indent":0,"parameters":[1]},{"code":0,"indent":0,"parameters":[]}],"moveFrequency":3,"moveRoute":{"list":[{"code":0,"parameters":[]}],"repeat":true,"skippable":false,"wait":false},"moveSpeed":3,"moveType":0,"priorityType":1,"stepAnime":false,"through":false,"trigger":0,"walkAnime":true}],"x":13,"y":5},
{"id":10,"name":"EV010","note":"","pages":[{"conditions":{"actorId":1,"actorValid":false,"itemId":1,"itemValid":false,"selfSwitchCh":"A","selfSwitchValid":false,"switch1Id":1,"switch1Valid":false,"switch2Id":1,"switch2Valid":false,"variableId":1,"variableValid":false,"variableValue":0},"directionFix":false,"image":{"characterIndex":0,"characterName":"","direction":2,"pattern":0,"tileId":0},"list":[{"code":122,"indent":0,"parameters":[1,1,0,3,6,0,0]},{"code":0,"indent":0,"parameters":[]}],"moveFrequency":3,"moveRoute":{"list":[{"code":0,"parameters":[]}],"repeat":true,"skippable":false,"wait":false},"moveSpeed":3,"moveType":0,"priorityType":0,"stepAnime":false,"through":false,"trigger":0,"walkAnime":true}],"x":11,"y":4},
{"id":11,"name":"EV011","note":"","pages":[{"conditions":{"actorId":1,"actorValid":false,"itemId":1,"itemValid":false,"selfSwitchCh":"A","selfSwitchValid":false,"switch1Id":1,"switch1Valid":false,"switch2Id":1,"switch2Valid":false,"variableId":1,"variableValid":false,"variableValue":0},"directionFix":false,"image":{"tileId":0,"characterName":"Actor1","direction":2,"pattern":1,"characterIndex":0},"list":[{"code":250,"indent":0,"parameters":[{"name":"Move1","volume":90,"pitch":100,"pan":0}]},{"code":201,"indent":0,"parameters":[0,4,117,6,2,0]},{"code":0,"indent":0,"parameters":[]}],"moveFrequency":3,"moveRoute":{"list":[{"code":0,"parameters":[]}],"repeat":true,"skippable":false,"wait":false},"moveSpeed":3,"moveType":0,"priorityType":1,"stepAnime":false,"through":false,"trigger":1,"walkAnime":true}],"x":8,"y":2},
{"id":12,"name":"EV012","note":"","pages":[{"conditions":{"actorId":1,"actorValid":false,"itemId":1,"itemValid":false,"selfSwitchCh":"A","selfSwitchValid":false,"switch1Id":1,"switch1Valid":false,"switch2Id":1,"switch2Valid":false,"variableId":1,"variableValid":false,"variableValue":0},"directionFix":false,"image":{"characterIndex":0,"characterName":"","direction":2,"pattern":0,"tileId":0},"list":[{"code":357,"indent":0,"parameters":["VisuMZ_2_PartySystem","LockPartyMembers","Party: Lock/Unlock Member(s)",{"Actors:arraynum":"[\"1\"]","Lock:eval":"true"}]},{"code":657,"indent":0,"parameters":["Actor ID(s) = [\"1\"]"]},{"code":657,"indent":0,"parameters":["Lock? = true"]},{"code":357,"indent":0,"parameters":["VisuMZ_0_CoreEngine","GoldChange","Gold: Gain/Lose",{"value:eval":"500"}]},{"code":657,"indent":0,"parameters":["Value = 500"]},{"code":357,"indent":0,"parameters":["VisuMZ_2_PartySystem","ChangeMaxBattleMembers","Party: Change Max Battle Members",{"Value:eval":"1"}]},{"code":657,"indent":0,"parameters":["Max Members = 1"]},{"code":313,"indent":0,"parameters":[0,4,0,26]},{"code":318,"indent":0,"parameters":[0,0,0,8]},{"code":122,"indent":0,"parameters":[19,19,0,0,50]},{"code":123,"indent":0,"parameters":["A",0]},{"code":121,"indent":0,"parameters":[13,13,0]},{"code":231,"indent":0,"parameters":[2,"$Digivice",0,0,0,0,50,50,255,0]},{"code":231,"indent":0,"parameters":[3,"Save_Choice",0,0,0,630,100,100,255,0]},{"code":135,"indent":0,"parameters":[1]},{"code":357,"indent":0,"parameters":["VisuMZ_4_PictureCmnEvts","ChangePictureCommonEvent","System: Change Picture Common Event",{"PictureIDs:arraynum":"[\"1\"]","CommonEventID:num":"6","Custom":"","UseGlobal:eval":"true","OpaqueOnly:eval":"true","OpaqueErrorMargin:num":"3","ChangeTone:eval":"true","HoverTone:eval":"[128, 128, 128, 0]","BlendMode:num":"0"}]},{"code":657,"indent":0,"parameters":["Picture ID(s) = [\"1\"]"]},{"code":657,"indent":0,"parameters":["Common Event ID = 6"]},{"code":657,"indent":0,"parameters":["Custom = "]},{"code":657,"indent":0,"parameters":["Use Global? = true"]},{"code":657,"indent":0,"parameters":["Opaque Only? = true"]},{"code":657,"indent":0,"parameters":["Error Margin = 3"]},{"code":657,"indent":0,"parameters":["Change Tone on Hover? = true"]},{"code":657,"indent":0,"parameters":["Hover Tone = [128, 128, 128, 0]"]},{"code":657,"indent":0,"parameters":["Blend Mode on Hover = 0"]},{"code":0,"indent":0,"parameters":[]}],"moveFrequency":3,"moveRoute":{"list":[{"code":0,"parameters":[]}],"repeat":true,"skippable":false,"wait":false},"moveSpeed":3,"moveType":0,"priorityType":0,"stepAnime":false,"through":false,"trigger":3,"walkAnime":true},{"conditions":{"actorId":1,"actorValid":false,"itemId":1,"itemValid":false,"selfSwitchCh":"A","selfSwitchValid":true,"switch1Id":1,"switch1Valid":false,"switch2Id":1,"switch2Valid":false,"variableId":1,"variableValid":false,"variableValue":0},"directionFix":false,"image":{"characterIndex":0,"characterName":"","direction":2,"pattern":0,"tileId":0},"list":[{"code":0,"indent":0,"parameters":[]}],"moveFrequency":3,"moveRoute":{"list":[{"code":0,"parameters":[]}],"repeat":true,"skippable":false,"wait":false},"moveSpeed":3,"moveType":0,"priorityType":0,"stepAnime":false,"through":false,"trigger":0,"walkAnime":true}],"x":16,"y":0},
{"id":13,"name":"EV013","note":"","pages":[{"conditions":{"actorId":1,"actorValid":false,"itemId":1,"itemValid":false,"selfSwitchCh":"A","selfSwitchValid":false,"switch1Id":1,"switch1Valid":false,"switch2Id":1,"switch2Valid":false,"variableId":1,"variableValid":false,"variableValue":0},"directionFix":false,"image":{"tileId":0,"characterName":"Actor1","direction":2,"pattern":1,"characterIndex":1},"list":[{"code":102,"indent":0,"parameters":[["Evo Slot System","Switch 10","Evoluter(s)","Training Rank","NewGame","Cancel"],5,0,2,0]},{"code":402,"indent":0,"parameters":[0,"Evo Slot System"]},{"code":101,"indent":1,"parameters":["Actor1",1,0,2,"Debugger"]},{"code":401,"indent":1,"parameters":["\\c[8]Extra Evolution Slots\\c[0] unlocked."]},{"code":121,"indent":1,"parameters":[21,21,0]},{"code":357,"indent":1,"parameters":["VisuMZ_2_ClassChangeSystem","MulticlassRaiseLimit","Multiclass: Raise Limit for Actor(s)",{"Actors:arraynum":"[\"1\"]","Limit:num":"1"}]},{"code":657,"indent":1,"parameters":["Actor ID(s) = [\"1\"]"]},{"code":657,"indent":1,"parameters":["Raise Limit By = 1"]},{"code":0,"indent":1,"parameters":[]},{"code":402,"indent":0,"parameters":[1,"Switch 10"]},{"code":101,"indent":1,"parameters":["",0,0,2,""]},{"code":401,"indent":1,"parameters":["Switch 10"]},{"code":102,"indent":1,"parameters":[["On","Off","Nothing"],2,0,2,0]},{"code":402,"indent":1,"parameters":[0,"On"]},{"code":121,"indent":2,"parameters":[10,10,0]},{"code":0,"indent":2,"parameters":[]},{"code":402,"indent":1,"parameters":[1,"Off"]},{"code":121,"indent":2,"parameters":[10,10,1]},{"code":0,"indent":2,"parameters":[]},{"code":402,"indent":1,"parameters":[2,"Nothing"]},{"code":0,"indent":2,"parameters":[]},{"code":404,"indent":1,"parameters":[]},{"code":0,"indent":1,"parameters":[]},{"code":402,"indent":0,"parameters":[2,"Evoluter(s)"]},{"code":101,"indent":1,"parameters":["",0,0,2,""]},{"code":401,"indent":1,"parameters":["Obtain how many Evoluters?"]},{"code":103,"indent":1,"parameters":[2,4]},{"code":126,"indent":1,"parameters":[68,0,1,2]},{"code":101,"indent":1,"parameters":["",0,1,1,""]},{"code":401,"indent":1,"parameters":["Evoluters obtained: \\v[2]"]},{"code":0,"indent":1,"parameters":[]},{"code":402,"indent":0,"parameters":[3,"Training Rank"]},{"code":103,"indent":1,"parameters":[20,1]},{"code":0,"indent":1,"parameters":[]},{"code":402,"indent":0,"parameters":[4,"NewGame"]},{"code":357,"indent":1,"parameters":["VisuMZ_3_NewGamePlus","SaveNewGamePlus","Save: New Game+",{}]},{"code":0,"indent":1,"parameters":[]},{"code":402,"indent":0,"parameters":[5,"Cancel"]},{"code":0,"indent":1,"parameters":[]},{"code":404,"indent":0,"parameters":[]},{"code":0,"indent":0,"parameters":[]}],"moveFrequency":3,"moveRoute":{"list":[{"code":0,"parameters":[]}],"repeat":true,"skippable":false,"wait":false},"moveSpeed":3,"moveType":0,"priorityType":1,"stepAnime":false,"through":false,"trigger":0,"walkAnime":true}],"x":7,"y":7},
{"id":14,"name":"CommonEventTester","note":"","pages":[{"conditions":{"actorId":1,"actorValid":false,"itemId":1,"itemValid":false,"selfSwitchCh":"A","selfSwitchValid":false,"switch1Id":1,"switch1Valid":false,"switch2Id":1,"switch2Valid":false,"variableId":1,"variableValid":false,"variableValue":0},"directionFix":false,"image":{"tileId":137,"characterName":"","characterIndex":0,"direction":2,"pattern":0},"list":[{"code":102,"indent":0,"parameters":[["Quests","No"],1,0,2,0]},{"code":402,"indent":0,"parameters":[0,"Quests"]},{"code":357,"indent":1,"parameters":["VisuMZ_2_ItemCraftingSys","CustomItemCraftingSceneOpen","Scene: Item Crafting (Custom)",{"Contents":"","Items:arraynum":"[\"51\"]","Weapons:arraynum":"[]","Armors:arraynum":"[]","Settings":"","BypassSwitches:eval":"false","BypassMasks:eval":"false"}]},{"code":657,"indent":1,"parameters":["Contents = "]},{"code":657,"indent":1,"parameters":["Items = [\"51\"]"]},{"code":657,"indent":1,"parameters":["Weapons = []"]},{"code":657,"indent":1,"parameters":["Armors = []"]},{"code":657,"indent":1,"parameters":["Settings = "]},{"code":657,"indent":1,"parameters":["Bypass Switches? = false"]},{"code":657,"indent":1,"parameters":["Bypass Masks? = false"]},{"code":0,"indent":1,"parameters":[]},{"code":402,"indent":0,"parameters":[1,"No"]},{"code":0,"indent":1,"parameters":[]},{"code":404,"indent":0,"parameters":[]},{"code":0,"indent":0,"parameters":[]}],"moveFrequency":3,"moveRoute":{"list":[{"code":0,"parameters":[]}],"repeat":true,"skippable":false,"wait":false},"moveSpeed":3,"moveType":0,"priorityType":1,"stepAnime":false,"through":false,"trigger":0,"walkAnime":true}],"x":6,"y":5},
{"id":15,"name":"EV015","note":"","pages":[{"conditions":{"actorId":1,"actorValid":false,"itemId":1,"itemValid":false,"selfSwitchCh":"A","selfSwitchValid":false,"switch1Id":1,"switch1Valid":false,"switch2Id":1,"switch2Valid":false,"variableId":1,"variableValid":false,"variableValue":0},"directionFix":false,"image":{"tileId":0,"characterName":"Actor2","direction":2,"pattern":1,"characterIndex":1},"list":[{"code":0,"indent":0,"parameters":[]}],"moveFrequency":3,"moveRoute":{"list":[{"code":0,"parameters":[]}],"repeat":true,"skippable":false,"wait":false},"moveSpeed":3,"moveType":0,"priorityType":1,"stepAnime":false,"through":false,"trigger":0,"walkAnime":true}],"x":16,"y":12},
{"id":16,"name":"EV016","note":"","pages":[{"conditions":{"actorId":1,"actorValid":false,"itemId":1,"itemValid":false,"selfSwitchCh":"A","selfSwitchValid":false,"switch1Id":1,"switch1Valid":false,"switch2Id":1,"switch2Valid":false,"variableId":1,"variableValid":false,"variableValue":0},"directionFix":false,"image":{"tileId":0,"characterName":"Evil","direction":2,"pattern":1,"characterIndex":6},"list":[{"code":101,"indent":0,"parameters":["",0,0,2,""]},{"code":401,"indent":0,"parameters":["Learn Skill?"]},{"code":102,"indent":0,"parameters":[["Yes","No"],1,0,2,0]},{"code":402,"indent":0,"parameters":[0,"Yes"]},{"code":318,"indent":1,"parameters":[0,2,0,17]},{"code":0,"indent":1,"parameters":[]},{"code":402,"indent":0,"parameters":[1,"No"]},{"code":0,"indent":1,"parameters":[]},{"code":404,"indent":0,"parameters":[]},{"code":0,"indent":0,"parameters":[]}],"moveFrequency":3,"moveRoute":{"list":[{"code":0,"parameters":[]}],"repeat":true,"skippable":false,"wait":false},"moveSpeed":3,"moveType":0,"priorityType":1,"stepAnime":false,"through":false,"trigger":0,"walkAnime":true}],"x":5,"y":5},
{"id":17,"name":"EV017","note":"","pages":[{"conditions":{"actorId":1,"actorValid":false,"itemId":1,"itemValid":false,"selfSwitchCh":"A","selfSwitchValid":false,"switch1Id":1,"switch1Valid":false,"switch2Id":1,"switch2Valid":false,"variableId":1,"variableValid":false,"variableValue":0},"directionFix":true,"image":{"characterIndex":0,"characterName":"!Chest","direction":2,"pattern":1,"tileId":0},"list":[{"code":250,"indent":0,"parameters":[{"name":"Chest1","volume":90,"pitch":100,"pan":0}]},{"code":205,"indent":0,"parameters":[0,{"repeat":false,"skippable":false,"wait":true,"list":[{"code":36},{"code":17},{"code":15,"parameters":[3]},{"code":18},{"code":15,"parameters":[3]},{"code":0}]}]},{"code":505,"indent":0,"parameters":[{"code":36}]},{"code":505,"indent":0,"parameters":[{"code":17}]},{"code":505,"indent":0,"parameters":[{"code":15,"parameters":[3]}]},{"code":505,"indent":0,"parameters":[{"code":18}]},{"code":505,"indent":0,"parameters":[{"code":15,"parameters":[3]}]},{"code":123,"indent":0,"parameters":["A",0]},{"code":126,"indent":0,"parameters":[70,0,0,1]},{"code":101,"indent":0,"parameters":["",0,0,2]},{"code":401,"indent":0,"parameters":["Training Ticket was found!"]},{"code":0,"indent":0,"parameters":[]}],"moveFrequency":3,"moveRoute":{"list":[{"code":0,"parameters":[]}],"repeat":true,"skippable":false,"wait":false},"moveSpeed":3,"moveType":0,"priorityType":1,"stepAnime":false,"through":false,"trigger":0,"walkAnime":false},{"conditions":{"actorId":1,"actorValid":false,"itemId":1,"itemValid":false,"selfSwitchCh":"A","selfSwitchValid":true,"switch1Id":1,"switch1Valid":false,"switch2Id":1,"switch2Valid":false,"variableId":1,"variableValid":false,"variableValue":0},"directionFix":true,"image":{"characterIndex":0,"characterName":"!Chest","direction":8,"pattern":1,"tileId":0},"list":[{"code":0,"indent":0,"parameters":[]}],"moveFrequency":3,"moveRoute":{"list":[{"code":0,"parameters":[]}],"repeat":true,"skippable":false,"wait":false},"moveSpeed":3,"moveType":0,"priorityType":1,"stepAnime":false,"through":false,"trigger":0,"walkAnime":false}],"x":7,"y":8},
{"id":18,"name":"EV018","note":"","pages":[{"conditions":{"actorId":1,"actorValid":false,"itemId":1,"itemValid":false,"selfSwitchCh":"A","selfSwitchValid":false,"switch1Id":1,"switch1Valid":false,"switch2Id":1,"switch2Valid":false,"variableId":1,"variableValid":false,"variableValue":0},"directionFix":true,"image":{"characterIndex":0,"characterName":"!Chest","direction":2,"pattern":1,"tileId":0},"list":[{"code":250,"indent":0,"parameters":[{"name":"Chest1","volume":90,"pitch":100,"pan":0}]},{"code":205,"indent":0,"parameters":[0,{"repeat":false,"skippable":false,"wait":true,"list":[{"code":36},{"code":17},{"code":15,"parameters":[3]},{"code":18},{"code":15,"parameters":[3]},{"code":0}]}]},{"code":505,"indent":0,"parameters":[{"code":36}]},{"code":505,"indent":0,"parameters":[{"code":17}]},{"code":505,"indent":0,"parameters":[{"code":15,"parameters":[3]}]},{"code":505,"indent":0,"parameters":[{"code":18}]},{"code":505,"indent":0,"parameters":[{"code":15,"parameters":[3]}]},{"code":123,"indent":0,"parameters":["A",0]},{"code":126,"indent":0,"parameters":[71,0,0,1]},{"code":101,"indent":0,"parameters":["",0,0,2]},{"code":401,"indent":0,"parameters":["Training Codes was found!"]},{"code":0,"indent":0,"parameters":[]}],"moveFrequency":3,"moveRoute":{"list":[{"code":0,"parameters":[]}],"repeat":true,"skippable":false,"wait":false},"moveSpeed":3,"moveType":0,"priorityType":1,"stepAnime":false,"through":false,"trigger":0,"walkAnime":false},{"conditions":{"actorId":1,"actorValid":false,"itemId":1,"itemValid":false,"selfSwitchCh":"A","selfSwitchValid":true,"switch1Id":1,"switch1Valid":false,"switch2Id":1,"switch2Valid":false,"variableId":1,"variableValid":false,"variableValue":0},"directionFix":true,"image":{"characterIndex":0,"characterName":"!Chest","direction":8,"pattern":1,"tileId":0},"list":[{"code":0,"indent":0,"parameters":[]}],"moveFrequency":3,"moveRoute":{"list":[{"code":0,"parameters":[]}],"repeat":true,"skippable":false,"wait":false},"moveSpeed":3,"moveType":0,"priorityType":1,"stepAnime":false,"through":false,"trigger":0,"walkAnime":false}],"x":7,"y":9},
{"id":19,"name":"EV019","note":"","pages":[{"conditions":{"actorId":1,"actorValid":false,"itemId":1,"itemValid":false,"selfSwitchCh":"A","selfSwitchValid":false,"switch1Id":1,"switch1Valid":false,"switch2Id":1,"switch2Valid":false,"variableId":1,"variableValid":false,"variableValue":0},"directionFix":true,"image":{"characterIndex":0,"characterName":"!Chest","direction":2,"pattern":1,"tileId":0},"list":[{"code":250,"indent":0,"parameters":[{"name":"Chest1","volume":90,"pitch":100,"pan":0}]},{"code":205,"indent":0,"parameters":[0,{"repeat":false,"skippable":false,"wait":true,"list":[{"code":36},{"code":17},{"code":15,"parameters":[3]},{"code":18},{"code":15,"parameters":[3]},{"code":0}]}]},{"code":505,"indent":0,"parameters":[{"code":36}]},{"code":505,"indent":0,"parameters":[{"code":17}]},{"code":505,"indent":0,"parameters":[{"code":15,"parameters":[3]}]},{"code":505,"indent":0,"parameters":[{"code":18}]},{"code":505,"indent":0,"parameters":[{"code":15,"parameters":[3]}]},{"code":123,"indent":0,"parameters":["A",0]},{"code":126,"indent":0,"parameters":[300,0,0,1]},{"code":101,"indent":0,"parameters":["",0,0,2]},{"code":401,"indent":0,"parameters":["Loot Box: Base was found!"]},{"code":0,"indent":0,"parameters":[]}],"moveFrequency":3,"moveRoute":{"list":[{"code":0,"parameters":[]}],"repeat":true,"skippable":false,"wait":false},"moveSpeed":3,"moveType":0,"priorityType":1,"stepAnime":false,"through":false,"trigger":0,"walkAnime":false},{"conditions":{"actorId":1,"actorValid":false,"itemId":1,"itemValid":false,"selfSwitchCh":"A","selfSwitchValid":true,"switch1Id":1,"switch1Valid":false,"switch2Id":1,"switch2Valid":false,"variableId":1,"variableValid":false,"variableValue":0},"directionFix":true,"image":{"characterIndex":0,"characterName":"!Chest","direction":8,"pattern":1,"tileId":0},"list":[{"code":0,"indent":0,"parameters":[]}],"moveFrequency":3,"moveRoute":{"list":[{"code":0,"parameters":[]}],"repeat":true,"skippable":false,"wait":false},"moveSpeed":3,"moveType":0,"priorityType":1,"stepAnime":false,"through":false,"trigger":0,"walkAnime":false}],"x":14,"y":5},
{"id":20,"name":"EV020","note":"","pages":[{"conditions":{"actorId":1,"actorValid":false,"itemId":1,"itemValid":false,"selfSwitchCh":"A","selfSwitchValid":false,"switch1Id":1,"switch1Valid":false,"switch2Id":1,"switch2Valid":false,"variableId":1,"variableValid":false,"variableValue":0},"directionFix":true,"image":{"characterIndex":0,"characterName":"!Chest","direction":2,"pattern":1,"tileId":0},"list":[{"code":250,"indent":0,"parameters":[{"name":"Chest1","volume":90,"pitch":100,"pan":0}]},{"code":205,"indent":0,"parameters":[0,{"repeat":false,"skippable":false,"wait":true,"list":[{"code":36},{"code":17},{"code":15,"parameters":[3]},{"code":18},{"code":15,"parameters":[3]},{"code":0}]}]},{"code":505,"indent":0,"parameters":[{"code":36}]},{"code":505,"indent":0,"parameters":[{"code":17}]},{"code":505,"indent":0,"parameters":[{"code":15,"parameters":[3]}]},{"code":505,"indent":0,"parameters":[{"code":18}]},{"code":505,"indent":0,"parameters":[{"code":15,"parameters":[3]}]},{"code":123,"indent":0,"parameters":["A",0]},{"code":126,"indent":0,"parameters":[101,0,0,1]},{"code":126,"indent":0,"parameters":[102,0,0,1]},{"code":126,"indent":0,"parameters":[103,0,0,1]},{"code":126,"indent":0,"parameters":[104,0,0,1]},{"code":126,"indent":0,"parameters":[105,0,0,1]},{"code":126,"indent":0,"parameters":[106,0,0,1]},{"code":121,"indent":0,"parameters":[51,56,0]},{"code":101,"indent":0,"parameters":["",0,0,2,""]},{"code":401,"indent":0,"parameters":["Starting Digi-Chips was found!"]},{"code":122,"indent":0,"parameters":[3,3,0,3,6,0,0]},{"code":101,"indent":0,"parameters":["",0,0,2,""]},{"code":401,"indent":0,"parameters":["\\v[3]"]},{"code":101,"indent":0,"parameters":["$Digivice",0,1,1,"Digivice"]},{"code":401,"indent":0,"parameters":["Which one would you like to insert?"]},{"code":102,"indent":0,"parameters":[["Kunemon","DoKunemon","Gotsumon","Floramon","Bearmon","Swimmon"],-1,-1,2,0]},{"code":402,"indent":0,"parameters":[0,"Kunemon"]},{"code":355,"indent":1,"parameters":["$gameParty.removeActor($gameVariables.value(3));"]},{"code":129,"indent":1,"parameters":[82,0,true]},{"code":0,"indent":1,"parameters":[]},{"code":402,"indent":0,"parameters":[1,"DoKunemon"]},{"code":355,"indent":1,"parameters":["$gameParty.removeActor($gameVariables.value(3));"]},{"code":129,"indent":1,"parameters":[33,0,true]},{"code":0,"indent":1,"parameters":[]},{"code":402,"indent":0,"parameters":[2,"Gotsumon"]},{"code":355,"indent":1,"parameters":["$gameParty.removeActor($gameVariables.value(3));"]},{"code":129,"indent":1,"parameters":[63,0,true]},{"code":0,"indent":1,"parameters":[]},{"code":402,"indent":0,"parameters":[3,"Floramon"]},{"code":355,"indent":1,"parameters":["$gameParty.removeActor($gameVariables.value(3));"]},{"code":129,"indent":1,"parameters":[53,0,true]},{"code":0,"indent":1,"parameters":[]},{"code":402,"indent":0,"parameters":[4,"Bearmon"]},{"code":355,"indent":1,"parameters":["$gameParty.removeActor($gameVariables.value(3));"]},{"code":129,"indent":1,"parameters":[14,0,true]},{"code":0,"indent":1,"parameters":[]},{"code":402,"indent":0,"parameters":[5,"Swimmon"]},{"code":355,"indent":1,"parameters":["$gameParty.removeActor($gameVariables.value(3));"]},{"code":129,"indent":1,"parameters":[130,0,true]},{"code":0,"indent":1,"parameters":[]},{"code":404,"indent":0,"parameters":[]},{"code":0,"indent":0,"parameters":[]}],"moveFrequency":3,"moveRoute":{"list":[{"code":0,"parameters":[]}],"repeat":true,"skippable":false,"wait":false},"moveSpeed":3,"moveType":0,"priorityType":1,"stepAnime":false,"through":false,"trigger":0,"walkAnime":false},{"conditions":{"actorId":1,"actorValid":false,"itemId":1,"itemValid":false,"selfSwitchCh":"A","selfSwitchValid":true,"switch1Id":1,"switch1Valid":false,"switch2Id":1,"switch2Valid":false,"variableId":1,"variableValid":false,"variableValue":0},"directionFix":true,"image":{"characterIndex":0,"characterName":"!Chest","direction":8,"pattern":1,"tileId":0},"list":[{"code":0,"indent":0,"parameters":[]}],"moveFrequency":3,"moveRoute":{"list":[{"code":0,"parameters":[]}],"repeat":true,"skippable":false,"wait":false},"moveSpeed":3,"moveType":0,"priorityType":1,"stepAnime":false,"through":false,"trigger":0,"walkAnime":false}],"x":11,"y":8},
{"id":21,"name":"EV021","note":"","pages":[{"conditions":{"actorId":1,"actorValid":false,"itemId":1,"itemValid":false,"selfSwitchCh":"A","selfSwitchValid":false,"switch1Id":1,"switch1Valid":false,"switch2Id":1,"switch2Valid":false,"variableId":1,"variableValid":false,"variableValue":0},"directionFix":false,"image":{"tileId":0,"characterName":"Evil","direction":2,"pattern":1,"characterIndex":1},"list":[{"code":318,"indent":0,"parameters":[0,4,0,101]},{"code":318,"indent":0,"parameters":[0,4,0,102]},{"code":0,"indent":0,"parameters":[]}],"moveFrequency":3,"moveRoute":{"list":[{"code":0,"parameters":[]}],"repeat":true,"skippable":false,"wait":false},"moveSpeed":3,"moveType":0,"priorityType":1,"stepAnime":false,"through":false,"trigger":0,"walkAnime":true}],"x":12,"y":8},
{"id":22,"name":"EV022","note":"","pages":[{"conditions":{"actorId":1,"actorValid":false,"itemId":1,"itemValid":false,"selfSwitchCh":"A","selfSwitchValid":false,"switch1Id":1,"switch1Valid":false,"switch2Id":1,"switch2Valid":false,"variableId":1,"variableValid":false,"variableValue":0},"directionFix":true,"image":{"characterIndex":0,"characterName":"!Chest","direction":2,"pattern":1,"tileId":0},"list":[{"code":250,"indent":0,"parameters":[{"name":"Chest1","volume":90,"pitch":100,"pan":0}]},{"code":205,"indent":0,"parameters":[0,{"repeat":false,"skippable":false,"wait":true,"list":[{"code":36},{"code":17},{"code":15,"parameters":[3]},{"code":18},{"code":15,"parameters":[3]},{"code":0}]}]},{"code":505,"indent":0,"parameters":[{"code":36}]},{"code":505,"indent":0,"parameters":[{"code":17}]},{"code":505,"indent":0,"parameters":[{"code":15,"parameters":[3]}]},{"code":505,"indent":0,"parameters":[{"code":18}]},{"code":505,"indent":0,"parameters":[{"code":15,"parameters":[3]}]},{"code":123,"indent":0,"parameters":["A",0]},{"code":126,"indent":0,"parameters":[101,0,0,1]},{"code":101,"indent":0,"parameters":["",0,0,2]},{"code":401,"indent":0,"parameters":["Digitama: Keramon was found!"]},{"code":0,"indent":0,"parameters":[]}],"moveFrequency":3,"moveRoute":{"list":[{"code":0,"parameters":[]}],"repeat":true,"skippable":false,"wait":false},"moveSpeed":3,"moveType":0,"priorityType":1,"stepAnime":false,"through":false,"trigger":0,"walkAnime":false},{"conditions":{"actorId":1,"actorValid":false,"itemId":1,"itemValid":false,"selfSwitchCh":"A","selfSwitchValid":true,"switch1Id":1,"switch1Valid":false,"switch2Id":1,"switch2Valid":false,"variableId":1,"variableValid":false,"variableValue":0},"directionFix":true,"image":{"characterIndex":0,"characterName":"!Chest","direction":8,"pattern":1,"tileId":0},"list":[{"code":0,"indent":0,"parameters":[]}],"moveFrequency":3,"moveRoute":{"list":[{"code":0,"parameters":[]}],"repeat":true,"skippable":false,"wait":false},"moveSpeed":3,"moveType":0,"priorityType":1,"stepAnime":false,"through":false,"trigger":0,"walkAnime":false}],"x":11,"y":9},
{"id":23,"name":"EV023","note":"","pages":[{"conditions":{"actorId":1,"actorValid":false,"itemId":1,"itemValid":false,"selfSwitchCh":"A","selfSwitchValid":false,"switch1Id":1,"switch1Valid":false,"switch2Id":1,"switch2Valid":false,"variableId":1,"variableValid":false,"variableValue":0},"directionFix":false,"image":{"tileId":0,"characterName":"People1","direction":2,"pattern":1,"characterIndex":0},"list":[{"code":102,"indent":0,"parameters":[["State On","State Kill: Give","State Kill: Take"],1,0,2,0]},{"code":402,"indent":0,"parameters":[0,"State On"]},{"code":117,"indent":1,"parameters":[6]},{"code":0,"indent":1,"parameters":[]},{"code":402,"indent":0,"parameters":[1,"State Kill: Give"]},{"code":318,"indent":1,"parameters":[0,4,0,56]},{"code":0,"indent":1,"parameters":[]},{"code":402,"indent":0,"parameters":[2,"State Kill: Take"]},{"code":318,"indent":1,"parameters":[0,4,1,56]},{"code":0,"indent":1,"parameters":[]},{"code":404,"indent":0,"parameters":[]},{"code":0,"indent":0,"parameters":[]}],"moveFrequency":3,"moveRoute":{"list":[{"code":0,"parameters":[]}],"repeat":true,"skippable":false,"wait":false},"moveSpeed":3,"moveType":0,"priorityType":1,"stepAnime":false,"through":false,"trigger":0,"walkAnime":true}],"x":7,"y":10},
{"id":24,"name":"EV024","note":"","pages":[{"conditions":{"actorId":1,"actorValid":false,"itemId":1,"itemValid":false,"selfSwitchCh":"A","selfSwitchValid":false,"switch1Id":1,"switch1Valid":false,"switch2Id":1,"switch2Valid":false,"variableId":1,"variableValid":false,"variableValue":0},"directionFix":true,"image":{"characterIndex":0,"characterName":"!Chest","direction":2,"pattern":1,"tileId":0},"list":[{"code":250,"indent":0,"parameters":[{"name":"Chest1","volume":90,"pitch":100,"pan":0}]},{"code":205,"indent":0,"parameters":[0,{"repeat":false,"skippable":false,"wait":true,"list":[{"code":36},{"code":17},{"code":15,"parameters":[3]},{"code":18},{"code":15,"parameters":[3]},{"code":0}]}]},{"code":505,"indent":0,"parameters":[{"code":36}]},{"code":505,"indent":0,"parameters":[{"code":17}]},{"code":505,"indent":0,"parameters":[{"code":15,"parameters":[3]}]},{"code":505,"indent":0,"parameters":[{"code":18}]},{"code":505,"indent":0,"parameters":[{"code":15,"parameters":[3]}]},{"code":123,"indent":0,"parameters":["A",0]},{"code":126,"indent":0,"parameters":[50,0,0,1]},{"code":101,"indent":0,"parameters":["",0,0,2]},{"code":401,"indent":0,"parameters":["Chip Set was found!"]},{"code":0,"indent":0,"parameters":[]}],"moveFrequency":3,"moveRoute":{"list":[{"code":0,"parameters":[]}],"repeat":true,"skippable":false,"wait":false},"moveSpeed":3,"moveType":0,"priorityType":1,"stepAnime":false,"through":false,"trigger":0,"walkAnime":false},{"conditions":{"actorId":1,"actorValid":false,"itemId":1,"itemValid":false,"selfSwitchCh":"A","selfSwitchValid":true,"switch1Id":1,"switch1Valid":false,"switch2Id":1,"switch2Valid":false,"variableId":1,"variableValid":false,"variableValue":0},"directionFix":true,"image":{"characterIndex":0,"characterName":"!Chest","direction":8,"pattern":1,"tileId":0},"list":[{"code":0,"indent":0,"parameters":[]}],"moveFrequency":3,"moveRoute":{"list":[{"code":0,"parameters":[]}],"repeat":true,"skippable":false,"wait":false},"moveSpeed":3,"moveType":0,"priorityType":1,"stepAnime":false,"through":false,"trigger":0,"walkAnime":false}],"x":10,"y":7},
{"id":25,"name":"EV025","note":"","pages":[{"conditions":{"actorId":1,"actorValid":false,"itemId":1,"itemValid":false,"selfSwitchCh":"A","selfSwitchValid":false,"switch1Id":1,"switch1Valid":false,"switch2Id":1,"switch2Valid":false,"variableId":1,"variableValid":false,"variableValue":0},"directionFix":false,"image":{"tileId":0,"characterName":"People2","direction":2,"pattern":1,"characterIndex":1},"list":[{"code":357,"indent":0,"parameters":["VisuMZ_1_MessageCore","ChoiceWindowProperties","Choices: Properties",{"LineHeight:num":"81","MaxRows:num":"8","MaxCols:num":"1","TextAlign:str":"default"}]},{"code":657,"indent":0,"parameters":["Line Height = 81"]},{"code":657,"indent":0,"parameters":["Max Rows = 8"]},{"code":657,"indent":0,"parameters":["Max Columns = 1"]},{"code":657,"indent":0,"parameters":["Text Alignment = default"]},{"code":102,"indent":0,"parameters":[["\\picture<Digivice01_Choice><Disable>","\\picture<Digivice01_Choice>","\\picture<Digivice01_Choice>"],2,0,1,0]},{"code":402,"indent":0,"parameters":[0,"\\picture<Digivice01_Choice><Disable>"]},{"code":0,"indent":1,"parameters":[]},{"code":402,"indent":0,"parameters":[1,"\\picture<Digivice01_Choice>"]},{"code":357,"indent":1,"parameters":["VisuMZ_1_MainMenuCore","ChangeActorMenuImageGroup","Actor: Change Menu Image (Group)",{"Step1:arraynum":"[\"4\"]","Step2:str":"Infermon"}]},{"code":657,"indent":1,"parameters":["Step 1: Target ID(s) = [\"4\"]"]},{"code":657,"indent":1,"parameters":["Step 2: Filename = Infermon"]},{"code":0,"indent":1,"parameters":[]},{"code":402,"indent":0,"parameters":[2,"\\picture<Digivice01_Choice>"]},{"code":357,"indent":1,"parameters":["VisuMZ_1_MessageCore","ChoiceWindowProperties","Choices: Properties",{"LineHeight:num":"81","MaxRows:num":"8","MaxCols:num":"3","TextAlign:str":"default"}]},{"code":657,"indent":1,"parameters":["Line Height = 81"]},{"code":657,"indent":1,"parameters":["Max Rows = 8"]},{"code":657,"indent":1,"parameters":["Max Columns = 3"]},{"code":657,"indent":1,"parameters":["Text Alignment = default"]},{"code":0,"indent":1,"parameters":[]},{"code":404,"indent":0,"parameters":[]},{"code":102,"indent":0,"parameters":[["\\picture<Digivice01_Choice><Disable>","\\picture<Digivice01_Choice>","\\picture<Digivice01_Choice>"],2,0,1,0]},{"code":402,"indent":0,"parameters":[0,"\\picture<Digivice01_Choice><Disable>"]},{"code":0,"indent":1,"parameters":[]},{"code":402,"indent":0,"parameters":[1,"\\picture<Digivice01_Choice>"]},{"code":357,"indent":1,"parameters":["VisuMZ_1_MainMenuCore","ChangeActorMenuImageGroup","Actor: Change Menu Image (Group)",{"Step1:arraynum":"[\"4\"]","Step2:str":"Infermon"}]},{"code":657,"indent":1,"parameters":["Step 1: Target ID(s) = [\"4\"]"]},{"code":657,"indent":1,"parameters":["Step 2: Filename = Infermon"]},{"code":0,"indent":1,"parameters":[]},{"code":402,"indent":0,"parameters":[2,"\\picture<Digivice01_Choice>"]},{"code":357,"indent":1,"parameters":["VisuMZ_1_MessageCore","ChoiceWindowProperties","Choices: Properties",{"LineHeight:num":"81","MaxRows:num":"8","MaxCols:num":"3","TextAlign:str":"default"}]},{"code":657,"indent":1,"parameters":["Line Height = 81"]},{"code":657,"indent":1,"parameters":["Max Rows = 8"]},{"code":657,"indent":1,"parameters":["Max Columns = 3"]},{"code":657,"indent":1,"parameters":["Text Alignment = default"]},{"code":0,"indent":1,"parameters":[]},{"code":404,"indent":0,"parameters":[]},{"code":102,"indent":0,"parameters":[["\\picture<Digivice01_Choice><Disable>","\\picture<Digivice01_Choice>","\\picture<Digivice01_Choice>"],2,0,1,0]},{"code":402,"indent":0,"parameters":[0,"\\picture<Digivice01_Choice><Disable>"]},{"code":0,"indent":1,"parameters":[]},{"code":402,"indent":0,"parameters":[1,"\\picture<Digivice01_Choice>"]},{"code":357,"indent":1,"parameters":["VisuMZ_1_MainMenuCore","ChangeActorMenuImageGroup","Actor: Change Menu Image (Group)",{"Step1:arraynum":"[\"4\"]","Step2:str":"Infermon"}]},{"code":657,"indent":1,"parameters":["Step 1: Target ID(s) = [\"4\"]"]},{"code":657,"indent":1,"parameters":["Step 2: Filename = Infermon"]},{"code":0,"indent":1,"parameters":[]},{"code":402,"indent":0,"parameters":[2,"\\picture<Digivice01_Choice>"]},{"code":357,"indent":1,"parameters":["VisuMZ_1_MessageCore","ChoiceWindowProperties","Choices: Properties",{"LineHeight:num":"81","MaxRows:num":"8","MaxCols:num":"3","TextAlign:str":"default"}]},{"code":657,"indent":1,"parameters":["Line Height = 81"]},{"code":657,"indent":1,"parameters":["Max Rows = 8"]},{"code":657,"indent":1,"parameters":["Max Columns = 3"]},{"code":657,"indent":1,"parameters":["Text Alignment = default"]},{"code":0,"indent":1,"parameters":[]},{"code":404,"indent":0,"parameters":[]},{"code":102,"indent":0,"parameters":[["\\picture<Digivice01_Choice><Disable>","\\picture<Digivice01_Choice>","\\picture<Digivice01_Choice>"],2,0,1,0]},{"code":402,"indent":0,"parameters":[0,"\\picture<Digivice01_Choice><Disable>"]},{"code":0,"indent":1,"parameters":[]},{"code":402,"indent":0,"parameters":[1,"\\picture<Digivice01_Choice>"]},{"code":357,"indent":1,"parameters":["VisuMZ_1_MainMenuCore","ChangeActorMenuImageGroup","Actor: Change Menu Image (Group)",{"Step1:arraynum":"[\"4\"]","Step2:str":"Infermon"}]},{"code":657,"indent":1,"parameters":["Step 1: Target ID(s) = [\"4\"]"]},{"code":657,"indent":1,"parameters":["Step 2: Filename = Infermon"]},{"code":0,"indent":1,"parameters":[]},{"code":402,"indent":0,"parameters":[2,"\\picture<Digivice01_Choice>"]},{"code":357,"indent":1,"parameters":["VisuMZ_1_MessageCore","ChoiceWindowProperties","Choices: Properties",{"LineHeight:num":"81","MaxRows:num":"8","MaxCols:num":"3","TextAlign:str":"default"}]},{"code":657,"indent":1,"parameters":["Line Height = 81"]},{"code":657,"indent":1,"parameters":["Max Rows = 8"]},{"code":657,"indent":1,"parameters":["Max Columns = 3"]},{"code":657,"indent":1,"parameters":["Text Alignment = default"]},{"code":0,"indent":1,"parameters":[]},{"code":404,"indent":0,"parameters":[]},{"code":0,"indent":0,"parameters":[]}],"moveFrequency":3,"moveRoute":{"list":[{"code":0,"parameters":[]}],"repeat":true,"skippable":false,"wait":false},"moveSpeed":3,"moveType":0,"priorityType":1,"stepAnime":false,"through":false,"trigger":0,"walkAnime":true}],"x":6,"y":7}
]
}